…
Let us analyse what kind of vehicles are generally involved in an accident, cars obviously top the list but pedal cycle is a surprsing second !

```r
df_ref_vehicle_type <- data.frame(Vehicle_Type= c(1:5,8:11,16:23,90,97,98,-1),
                               Vehicle_Type_Desc = c("Pedal cycle","Motorcycle 50cc and under","Motorcycle 125cc and under","Motorcycle over 125cc and up to 500cc","Motorcycle over 500cc","Taxi/Private hire car","Car","Minibus 8 - 16 passenger seats","Bus or coach 17 or more pass seats","Ridden horse","Agricultural vehicle","Tram","Van / Goods 3.5 tonnes mgw or under","Goods over 3.5t. and under 7.5t","Goods 7.5 tonnes mgw and over","Mobility scooter","Electric motorcycle","Other vehicle","Motorcycle- unknown cc","Goods vehicle - unknown weight","Data missing or out of range"))

df_makemodel$Vehicle_Type <-as.factor(df_makemodel$Vehicle_Type)
df_ref_vehicle_type$Vehicle_Type <- as.factor(df_ref_vehicle_type$Vehicle_Type)

df_group_by_vehicle_type <- df_makemodel%>% group_by(Vehicle_Type) %>% summarise(frequency = n())%>% arrange(desc(frequency)) %>% inner_join(df_ref_vehicle_type,by="Vehicle_Type")
df_group_by_vehicle_type
```

```
## # A tibble: 21 x 3
##    Vehicle_Type frequency                     Vehicle_Type_Desc
##          <fctr>     <int>                                <fctr>
##  1            9    179615                                   Car
##  2            1     19047                           Pedal cycle
##  3           19     13125   Van / Goods 3.5 tonnes mgw or under
##  4            3      9152            Motorcycle 125cc and under
##  5            5      6704                 Motorcycle over 500cc
##  6            8      5234                 Taxi/Private hire car
##  7           11      4998    Bus or coach 17 or more pass seats
##  8           21      4262         Goods 7.5 tonnes mgw and over
##  9            4      2232 Motorcycle over 125cc and up to 500cc
## 10            2      1907             Motorcycle 50cc and under
## # ... with 11 more rows
```
…
